digraph img08 {
  node[shape=record]

  input  [label="{<f0> input|<f1> prueba.txt\n}" shape=Mrecord];
  lang   [label="{<f0> procesamiento|<f1> lectura\n división\n definición\n cálculo\n}" shape=Mrecord];
  output [label="{<f0> output|<f1> string\n}" shape=Mrecord];
  print  [label="{<f0> impresión|<f1> terminal\n}" shape=Mrecord];

  input  -> lang
  lang   -> output
  output -> print
}
