digraph img04 {
  node[shape=record]

  input  [label="{<f0> input|<f1> dato\n documento\n}" shape=Mrecord];
  lang   [label="{<f0> procesamiento|<f1> lectura\n análisis\n extracción\n modificación\n}" shape=Mrecord];
  output [label="{<f0> output|<f1> string\n array\n object\n integer\n float\n …\n}" shape=Mrecord];
  print  [label="{<f0> impresión|<f1> terminal\n}" shape=Mrecord];
  store  [label="{<f0> almacenamiento|<f1> memoria\n}" shape=Mrecord];
  save   [label="{<f0> guardado|<f1> documento\n}" shape=Mrecord];

  input  -> lang
  lang   -> output
  output -> input [style=dashed]
  output -> print
  output -> store
  output -> save
}
